(footprint "CHIP-LED0805" (version 20211014) (generator pcbnew)
  (layer "F.Cu")
  (tedit 0)
  (descr "<b>Hyper CHIPLED Hyper-Bright LED</b><p>\nLB R99A<br>\nSource: http://www.osram.convergy.de/ ... lb_r99a.pdf")
  (fp_text reference "REF**" (at -1.27 1.27 90) (layer "F.Cu")
    (effects (font (size 1.1684 1.1684) (thickness 0.1016)) (justify left bottom))
    (tstamp 759fa499-efa9-4b74-9ef6-d9f8f78aea1f)
  )
  (fp_text value ">VALUE" (at 2.54 1.27 90) (layer "F.Cu")
    (effects (font (size 1.1684 1.1684) (thickness 0.1016)) (justify left bottom))
    (tstamp 26306a5b-e5f4-4216-a817-dc409dba8019)
  )
  (fp_poly (pts
      (xy -0.675 0)
      (xy -0.525 0)
      (xy -0.525 -0.3)
      (xy -0.675 -0.3)
    ) (layer "F.Cu") (width 0) (fill solid) (tstamp 1a2368e4-0cb1-4707-bae8-00d05169f65e))
  (fp_poly (pts
      (xy 0.525 0)
      (xy 0.675 0)
      (xy 0.675 -0.3)
      (xy 0.525 -0.3)
    ) (layer "F.Cu") (width 0) (fill solid) (tstamp 8112637e-7be1-42b6-86b5-57bf35e17594))
  (fp_poly (pts
      (xy -0.15 0)
      (xy 0.15 0)
      (xy 0.15 -0.3)
      (xy -0.15 -0.3)
    ) (layer "F.Cu") (width 0) (fill solid) (tstamp a0bca42e-bff2-4fdf-92f5-30ea7b68d767))
  (fp_line (start -0.625 -0.45) (end -0.625 0.45) (layer "F.Fab") (width 0.1016) (tstamp 4548798c-79f2-4966-b627-410152b84955))
  (fp_line (start 0.625 -0.45) (end 0.625 0.475) (layer "F.Fab") (width 0.1016) (tstamp deb5110a-3973-49c2-acfc-e6734f6c31f5))
  (fp_poly (pts
      (xy -0.675 1.05)
      (xy 0.675 1.05)
      (xy 0.675 0.45)
      (xy -0.675 0.45)
    ) (layer "F.Fab") (width 0) (fill solid) (tstamp 0b417550-14bf-4067-8ead-279b55166ecb))
  (fp_poly (pts
      (xy -0.675 -0.45)
      (xy 0.675 -0.45)
      (xy 0.675 -1.05)
      (xy -0.675 -1.05)
    ) (layer "F.Fab") (width 0) (fill solid) (tstamp 8e9a0519-261b-43ce-90b5-c8b76ed5be5d))
  (pad "A" smd rect (at 0 1.05) (size 1.2 1.2) (layers "F.Cu" "F.Paste" "F.Mask")
    (solder_mask_margin 0.0508) (tstamp 51bde5c9-e3b9-4421-acc2-5fe92871645c))
  (pad "C" smd rect (at 0 -1.05) (size 1.2 1.2) (layers "F.Cu" "F.Paste" "F.Mask")
    (solder_mask_margin 0.0508) (tstamp 7c3cc65f-0141-4c8e-a625-601fe326b5f8))
)
