(footprint "MA03-2" (version 20211014) (generator pcbnew)
  (layer "F.Cu")
  (tedit 0)
  (descr "<b>PIN HEADER</b>")
  (fp_text reference "REF**" (at -3.81 -2.921) (layer "F.Cu")
    (effects (font (size 1.143 1.143) (thickness 0.127)) (justify left bottom))
    (tstamp 2a67119c-b8c8-45ba-b4c6-a7e73c1043aa)
  )
  (fp_text value ">VALUE" (at -1.27 4.191) (layer "F.Cu")
    (effects (font (size 1.143 1.143) (thickness 0.127)) (justify left bottom))
    (tstamp 40b67ae3-32c6-4fd7-9b41-f04386b9af20)
  )
  (fp_text user "1" (at -3.175 3.556) (layer "F.Cu")
    (effects (font (size 0.73152 0.73152) (thickness 0.08128)) (justify left bottom))
    (tstamp 138472af-af13-48d1-a474-0d5318c03189)
  )
  (fp_line (start -1.905 2.54) (end -3.175 2.54) (layer "F.Cu") (width 0.1524) (tstamp 071adbf9-40c0-4d41-999d-9bc2ec365948))
  (fp_line (start 0.635 2.54) (end -0.635 2.54) (layer "F.Cu") (width 0.1524) (tstamp 2144e3df-1352-4bc3-aeea-0bcc94589f39))
  (fp_line (start 3.81 1.905) (end 3.175 2.54) (layer "F.Cu") (width 0.1524) (tstamp 24cc29b7-0d17-493d-8400-30bfbb3da465))
  (fp_line (start 3.175 2.54) (end 1.905 2.54) (layer "F.Cu") (width 0.1524) (tstamp 2e4b1c58-9b88-4bf1-ab83-5228a3919716))
  (fp_line (start -1.27 1.905) (end -1.905 2.54) (layer "F.Cu") (width 0.1524) (tstamp 30e90e20-94ea-47d2-888a-4799e65a7422))
  (fp_line (start -3.175 -2.54) (end -1.905 -2.54) (layer "F.Cu") (width 0.1524) (tstamp 3695136d-fada-45ba-beff-e8e732c08d88))
  (fp_line (start -3.175 -2.54) (end -3.81 -1.905) (layer "F.Cu") (width 0.1524) (tstamp 5de311d7-aac6-4c8d-a51b-f46fc90ff710))
  (fp_line (start 1.905 -2.54) (end 3.175 -2.54) (layer "F.Cu") (width 0.1524) (tstamp 6d2aebb1-0698-4ef8-9d67-ea1ed19931e6))
  (fp_line (start -0.635 2.54) (end -1.27 1.905) (layer "F.Cu") (width 0.1524) (tstamp 74f27d31-7dba-4d70-af8e-3d2c601dc5e2))
  (fp_line (start 1.905 2.54) (end 1.27 1.905) (layer "F.Cu") (width 0.1524) (tstamp 88e64251-fd21-455e-ae28-31a97e585fb4))
  (fp_line (start -3.81 1.905) (end -3.175 2.54) (layer "F.Cu") (width 0.1524) (tstamp 8ad98a12-e177-473f-9dfb-fce368b4e968))
  (fp_line (start -1.905 -2.54) (end -1.27 -1.905) (layer "F.Cu") (width 0.1524) (tstamp 978a8bf7-e941-4338-aa88-a162c42d7724))
  (fp_line (start 3.81 -1.905) (end 3.81 1.905) (layer "F.Cu") (width 0.1524) (tstamp 9eede7c5-b476-4218-bfe2-af48c332a331))
  (fp_line (start -0.635 -2.54) (end 0.635 -2.54) (layer "F.Cu") (width 0.1524) (tstamp a4a4ca62-2900-4af0-a95a-86420804bb60))
  (fp_line (start 3.175 -2.54) (end 3.81 -1.905) (layer "F.Cu") (width 0.1524) (tstamp b1a199fd-7660-41e1-b5be-4a82c5fdaa7f))
  (fp_line (start -1.27 -1.905) (end -0.635 -2.54) (layer "F.Cu") (width 0.1524) (tstamp b969cd19-8fe6-419b-a7be-bb65fc5164fa))
  (fp_line (start 1.27 -1.905) (end 1.905 -2.54) (layer "F.Cu") (width 0.1524) (tstamp c79ee89b-6921-423c-a85c-86ed3c63f54e))
  (fp_line (start 0.635 -2.54) (end 1.27 -1.905) (layer "F.Cu") (width 0.1524) (tstamp f2e873a7-5df4-47d9-b421-bd8da87c039a))
  (fp_line (start 1.27 1.905) (end 0.635 2.54) (layer "F.Cu") (width 0.1524) (tstamp f9b20bbf-44e6-4912-9021-cadcf11d7d3d))
  (fp_line (start -3.81 -1.905) (end -3.81 1.905) (layer "F.Cu") (width 0.1524) (tstamp fa823f73-ae4c-45b4-8a39-608318984f8d))
  (fp_poly (pts
      (xy -0.254 1.524)
      (xy 0.254 1.524)
      (xy 0.254 1.016)
      (xy -0.254 1.016)
    ) (layer "F.Fab") (width 0) (fill solid) (tstamp 198d07c3-bf66-4298-8211-3062cdd4bf85))
  (fp_poly (pts
      (xy 2.286 -1.016)
      (xy 2.794 -1.016)
      (xy 2.794 -1.524)
      (xy 2.286 -1.524)
    ) (layer "F.Fab") (width 0) (fill solid) (tstamp 448bd0ee-6bcb-46dd-9059-136d1072c840))
  (fp_poly (pts
      (xy -2.794 1.524)
      (xy -2.286 1.524)
      (xy -2.286 1.016)
      (xy -2.794 1.016)
    ) (layer "F.Fab") (width 0) (fill solid) (tstamp 44c3d869-8d35-48c9-84ee-a489f7b6023d))
  (fp_poly (pts
      (xy -0.254 -1.016)
      (xy 0.254 -1.016)
      (xy 0.254 -1.524)
      (xy -0.254 -1.524)
    ) (layer "F.Fab") (width 0) (fill solid) (tstamp 8963edf9-55b9-4a93-9e43-fd9c8bf4f70b))
  (fp_poly (pts
      (xy 2.286 1.524)
      (xy 2.794 1.524)
      (xy 2.794 1.016)
      (xy 2.286 1.016)
    ) (layer "F.Fab") (width 0) (fill solid) (tstamp ba524b21-8145-42ed-b0f7-7f9842e1d08e))
  (fp_poly (pts
      (xy -2.794 -1.016)
      (xy -2.286 -1.016)
      (xy -2.286 -1.524)
      (xy -2.794 -1.524)
    ) (layer "F.Fab") (width 0) (fill solid) (tstamp ee799e0e-efdf-4bd5-bb6e-4d3a3524a1ed))
  (pad "1" thru_hole circle (at -2.54 1.27) (size 1.524 1.524) (drill 1.016) (layers *.Cu *.Mask)
    (solder_mask_margin 0.0508) (tstamp 636ff8c5-483b-47dc-a581-ae7c18e3ece2))
  (pad "2" thru_hole roundrect (at -2.54 -1.27) (size 1.524 1.524) (drill 1.016) (layers *.Cu *.Mask) (roundrect_rratio 0.25)
    (chamfer_ratio 0.2928932188) (chamfer top_left top_right bottom_left bottom_right)
    (solder_mask_margin 0.0508) (tstamp 0d723130-2bb7-4381-9e95-97fe12228287))
  (pad "3" thru_hole roundrect (at 0 1.27) (size 1.524 1.524) (drill 1.016) (layers *.Cu *.Mask) (roundrect_rratio 0.25)
    (chamfer_ratio 0.2928932188) (chamfer top_left top_right bottom_left bottom_right)
    (solder_mask_margin 0.0508) (tstamp c215d549-c6c7-4c95-8987-a5cb1638e828))
  (pad "4" thru_hole roundrect (at 0 -1.27) (size 1.524 1.524) (drill 1.016) (layers *.Cu *.Mask) (roundrect_rratio 0.25)
    (chamfer_ratio 0.2928932188) (chamfer top_left top_right bottom_left bottom_right)
    (solder_mask_margin 0.0508) (tstamp 858f0683-cb5d-4db7-a113-3f471588fbd4))
  (pad "5" thru_hole roundrect (at 2.54 1.27) (size 1.524 1.524) (drill 1.016) (layers *.Cu *.Mask) (roundrect_rratio 0.25)
    (chamfer_ratio 0.2928932188) (chamfer top_left top_right bottom_left bottom_right)
    (solder_mask_margin 0.0508) (tstamp 484ac95d-7f36-483b-85e9-e9fece90780e))
  (pad "6" thru_hole roundrect (at 2.54 -1.27) (size 1.524 1.524) (drill 1.016) (layers *.Cu *.Mask) (roundrect_rratio 0.25)
    (chamfer_ratio 0.2928932188) (chamfer top_left top_right bottom_left bottom_right)
    (solder_mask_margin 0.0508) (tstamp 9699d17b-2eee-4e8d-9f89-6b86942eaa23))
)
