(footprint "SCREWHOLE2-56" (version 20211014) (generator pcbnew)
  (layer "F.Cu")
  (tedit 0)
  (descr "2-56 screw hole")
  (fp_text reference "REF**" (at 0 0) (layer "F.SilkS")
    (effects (font (size 1.27 1.27) (thickness 0.15)))
    (tstamp 05574e9f-5047-4d06-9506-b3d962125044)
  )
  (fp_text value "" (at 0 0) (layer "F.Cu")
    (effects (font (size 1.27 1.27) (thickness 0.15)))
    (tstamp 551dec45-ccd1-4867-af42-a2ac26566712)
  )
  (fp_circle (center 0 0) (end 1.2446 0) (layer "F.Cu") (width 0.2032) (fill none) (tstamp a74aed92-85e1-4f10-8be1-be19497d5ced))
  (pad "" np_thru_hole circle (at 0 0) (size 2.1844 2.1844) (drill 2.1844) (layers *.Cu *.Mask) (tstamp 6622ff8a-284d-480d-a870-5480658fb1be))
)
